\relax 
\catcode `"\active 
\babel@aux{slovene}{}
\@writefile{lof}{\contentsline {figure}{\numberline {1}{\ignorespaces Izgled spletne strani\relax }}{4}}
\providecommand*\caption@xref[2]{\@setref\relax\@undefined{#1}}
\newlabel{fig:CudaSpletnaStran}{{1}{4}}
\@writefile{lof}{\contentsline {figure}{\numberline {2}{\ignorespaces Prestreganje ukazov z burpSuitom\relax }}{5}}
\newlabel{fig:injectionBurp}{{2}{5}}
\@writefile{lof}{\contentsline {figure}{\numberline {3}{\ignorespaces Vsiljeno izvajanje ukaza "ls"\relax }}{5}}
\newlabel{fig:injectionLS}{{3}{5}}
\@writefile{lof}{\contentsline {figure}{\numberline {4}{\ignorespaces Šibka politika gesel\relax }}{6}}
\newlabel{fig:brokenAuthRegistracija}{{4}{6}}
\@writefile{lof}{\contentsline {figure}{\numberline {5}{\ignorespaces Objava sejnega ključa\relax }}{7}}
\newlabel{fig:brokensessionID}{{5}{7}}
\@writefile{lof}{\contentsline {figure}{\numberline {6}{\ignorespaces Slaba validacija sejnega ključa\relax }}{7}}
\newlabel{fig:brokenValidatedSession}{{6}{7}}
\@writefile{lof}{\contentsline {figure}{\numberline {7}{\ignorespaces Podatki se prenašajo preko url naslova\relax }}{8}}
\newlabel{fig:SensitiveURLdata}{{7}{8}}
\@writefile{lof}{\contentsline {figure}{\numberline {8}{\ignorespaces uporabniški podatki so shranjeni brez šifriranja\relax }}{9}}
\newlabel{fig:SensitiveSQLdataNoHash}{{8}{9}}
\newlabel{fig:SensitiveCopyright}{{9a}{9}}
\newlabel{sub@fig:SensitiveCopyright}{{a}{9}}
\newlabel{fig:SensitiveCopyright}{{9b}{9}}
\newlabel{sub@fig:SensitiveCopyright}{{b}{9}}
\@writefile{lof}{\contentsline {figure}{\numberline {10}{\ignorespaces Prosto dostopna dnevniška datoteka\relax }}{10}}
\newlabel{fig:SensitiveLog}{{10}{10}}
\@writefile{lof}{\contentsline {figure}{\numberline {11}{\ignorespaces Omogočen izpis vsebujočih datotek\relax }}{10}}
\newlabel{fig:SensitiveDirectory}{{11}{10}}
\newlabel{fig:XMLdangerusPayload}{{12a}{11}}
\newlabel{sub@fig:XMLdangerusPayload}{{a}{11}}
\newlabel{fig:XMLresault}{{12b}{11}}
\newlabel{sub@fig:XMLresault}{{b}{11}}
\newlabel{fig:AccessModUrl}{{13a}{12}}
\newlabel{sub@fig:AccessModUrl}{{a}{12}}
\newlabel{fig:AccessModUrlRes}{{13b}{12}}
\newlabel{sub@fig:AccessModUrlRes}{{b}{12}}
\@writefile{lof}{\contentsline {figure}{\numberline {14}{\ignorespaces Spreminjanje vrednosti API žetona\relax }}{13}}
\newlabel{fig:AccessToken}{{14}{13}}
\@writefile{lof}{\contentsline {figure}{\numberline {15}{\ignorespaces Prosto dostopna stran z informacijami o PHP strežniku\relax }}{14}}
\newlabel{fig:MissPHPinfo}{{15}{14}}
\@writefile{lof}{\contentsline {figure}{\numberline {16}{\ignorespaces Omogočeno nalaganje in izvajanje php datotek\relax }}{15}}
\newlabel{fig:MissPHPUploadAndRun}{{16}{15}}
\@writefile{lof}{\contentsline {figure}{\numberline {17}{\ignorespaces Omogočeno nalaganje in izvajanje php datotek\relax }}{15}}
\newlabel{fig:MissPHPUploadAndRun}{{17}{15}}
